<?xml version="1.0" encoding="UTF-8"?>
<svg width="38px" height="38px" viewBox="0 0 38 38" version="1.1" xmlns="http://www.w3.org/2000/svg" xmlns:xlink="http://www.w3.org/1999/xlink">
    <title>Ethereum</title>
    <defs>
        <linearGradient x1="92.5044365%" y1="3.31536193%" x2="5.94149993%" y2="100%" id="linearGradient-1">
            <stop stop-color="#8A82EE" offset="0%"></stop>
            <stop stop-color="#4B3FE4" offset="100%"></stop>
        </linearGradient>
    </defs>
    <g id="Page-1" stroke="none" stroke-width="1" fill="none" fill-rule="evenodd">
        <g id="Market_Unverified" transform="translate(-28.000000, -182.000000)">
            <g id="ETH" transform="translate(10.000000, 164.000000)">
                <g id="Ethereum" transform="translate(18.000000, 18.000000)">
                    <rect id="Rectangle" fill="url(#linearGradient-1)" fill-rule="nonzero" x="0" y="0" width="38" height="38" rx="8"></rect>
                    <g id="Ethereum_logo" transform="translate(12.000000, 7.000000)" fill="#FFFFFF">
                        <polygon id="Path" fill-opacity="0.900418931" points="7.19781188 0 7.04059313 0.534375 7.04059313 16.0407 7.19781188 16.1976375 14.3956744 11.943"></polygon>
                        <polygon id="Path" fill-opacity="0.582172781" points="7.1978625 0 0 11.943 7.1978625 16.1976937 7.1978625 8.6713875"></polygon>
                        <polygon id="Path" fill-opacity="0.974892437" points="7.19781188 17.5604962 7.10921812 17.6684963 7.10921812 23.19219 7.19781188 23.4509963 14.3999494 13.3079963"></polygon>
                        <polygon id="Path" fill-opacity="0.582172781" points="7.1978625 23.4509175 7.1978625 17.5604175 0 13.3079175"></polygon>
                        <polygon id="Path" points="7.19781188 16.1976206 14.3955619 11.9430394 7.19781188 8.67142687"></polygon>
                        <polygon id="Path" fill-opacity="0.48828125" points="5.0625e-05 11.943045 7.19780062 16.1976262 7.19780062 8.6714325"></polygon>
                    </g>
                </g>
            </g>
        </g>
    </g>
</svg>